{
  "project_info": {
    "project_number": "1041628577318",
    "firebase_url": "https://testes-ri.firebaseio.com",
    "project_id": "testes-ri",
    "storage_bucket": "testes-ri.appspot.com"
  },
  "client": [
    {
      "client_info": {
        "mobilesdk_app_id": "1:1041628577318:android:e0c3782d00e17a83",
        "android_client_info": {
          "package_name": "com.centralsigma.testefcm"
        }
      },
      "oauth_client": [
        {
          "client_id": "1041628577318-o90tehklljmfmm5ancuh1jan3lieb4lq.apps.googleusercontent.com",
          "client_type": 3
        }
      ],
      "api_key": [
        {
          "current_key": "AIzaSyCZWGvjtm2FBwlYJFfBAtrrLmIsk72PiBs"
        }
      ],
      "services": {
        "analytics_service": {
          "status": 1
        },
        "appinvite_service": {
          "status": 1,
          "other_platform_oauth_client": []
        },
        "ads_service": {
          "status": 2
        }
      }
    }
  ],
  "configuration_version": "1"
}